visual-phrase-structure
…
Base pairs, phrase-by-phrase
Phrase-structure
v18
16
23
0.4102564

Base pairs, phrase-by-phrase
Control
v18
18
22
0.4500000

# A tibble: 40 × 10
# Groups:   paradigm, name, condition, session, test [20]
   paradigm name  condition session test  phrase_learning group_mean     n    sd
   <fct>    <ord> <ord>     <fct>   <fct> <chr>                <dbl> <int> <dbl>
 1 A        Flyi… Phrase-s… 1       phra… good                  0.79    25  0.18
 2 A        Flyi… Phrase-s… 1       phra… not_good              0.6     12  0.19
 3 A        Flyi… Phrase-s… 2       phra… good                  0.94    25  0.07
 4 A        Flyi… Phrase-s… 2       phra… not_good              0.49    12  0.15
 5 A        Flyi… Phrase-s… 2       sent… good                  0.77    25  0.19
 6 A        Flyi… Phrase-s… 2       sent… not_good              0.63    12  0.15
 7 A        Flyi… Control   1       phra… good                  0.58     8  0.16
 8 A        Flyi… Control   1       phra… not_good              0.54    21  0.16
 9 A        Flyi… Control   2       phra… good                  0.83     8  0.06
10 A        Flyi… Control   2       phra… not_good              0.46    21  0.15
# ℹ 30 more rows
# ℹ 1 more variable: se <dbl>

# A tibble: 24 × 9
# Groups:   experiment, condition, session, test [12]
   experiment   condition   session test  phrase_learning group_mean     n    sd
   <fct>        <ord>       <fct>   <fct> <chr>                <dbl> <int> <dbl>
 1 Experiment 1 Phrase-str… 1       phra… good                  0.81    41  0.18
 2 Experiment 1 Phrase-str… 1       phra… not_good              0.59    19  0.19
 3 Experiment 1 Phrase-str… 2       phra… good                  0.92    41  0.1 
 4 Experiment 1 Phrase-str… 2       phra… not_good              0.52    19  0.13
 5 Experiment 1 Phrase-str… 2       sent… good                  0.76    41  0.19
 6 Experiment 1 Phrase-str… 2       sent… not_good              0.62    19  0.14
 7 Experiment 1 Control     1       phra… good                  0.6     16  0.15
 8 Experiment 1 Control     1       phra… not_good              0.5     42  0.19
 9 Experiment 1 Control     2       phra… good                  0.8     16  0.08
10 Experiment 1 Control     2       phra… not_good              0.49    42  0.13
# ℹ 14 more rows
# ℹ 1 more variable: se <dbl>
…
